{
    "KPlugin": {
        "Description": "Lists XML elements, attributes, attribute values and entities allowed by DTD",
        "Description[az]": "DTD tərəfindən icazə verilən XML elementlərini, atributları, atribut dəyərlərini və girişləri sıralayır",
        "Description[bg]": "Представя елементи на XML, атрибути, стойности на атрибути и обекти, позволени от DTD",
        "Description[ca@valencia]": "Llista els elements XML, atributs, valors dels atributs i entitats permeses per la DTD",
        "Description[ca]": "Llista els elements XML, atributs, valors dels atributs i entitats permeses per la DTD",
        "Description[cs]": "Vypisuje prvky, atributy, hodnoty atributů a entity XML povolené DTD",
        "Description[de]": "Zeigt XML-Elemente, Attribute, Attributwerte und Entitäten an, die von der DTD definiert werden",
        "Description[el]": "Λίστα XML αντικειμένων, ιδιοτήτων, τιμών ιδιοτήτων και οντοτήτων που επιτρέπει το DTD",
        "Description[en_GB]": "Lists XML elements, attributes, attribute values and entities allowed by DTD",
        "Description[es]": "Lista elementos XML, atributos, valores de atributos y entidades permitidas por la DTD",
        "Description[eu]": "XML elementuak, atributuak, atributuen balioak eta DTDak baimendutako entitateak zerrendatzen ditu",
        "Description[fi]": "Luettelee XML-alkiot, -määritteet, -määritteiden arvot ja DTD:n sallimat entiteetit",
        "Description[fr]": "Liste les éléments, attributs, valeurs d'attributs et entités XML autorisés par la DTD",
        "Description[hu]": "A DTD által engedélyezett XML elemek, attribútumok, attribútum-értékek és entitások listázása",
        "Description[ia]": "Lista elementos XML, attributos, valores de attributo e entitates permittite per DTD",
        "Description[it]": "Elenca gli elementi XML, gli attributi, i loro valori e le entità permesse dalla DTD",
        "Description[ko]": "XML 구성 요소, 속성과 값, DTD가 허용하는 엔티티 표시",
        "Description[nl]": "Somt XML-elementen, -atributen, -atribuutwaarden en -entiteiten op die door de DTD zijn toegestaan",
        "Description[pl]": "Lista elementów XML, atrybutów, wartości atrybutów i jednostek dozwolonych przez DTD",
        "Description[pt]": "Apresenta os elementos, atributos, valores dos atributos e entidades permitidos pela DTD",
        "Description[ru]": "Вывод элементов XML, их атрибутов, значений атрибутов и записей, разрешённых DTD",
        "Description[sl]": "Prikaži seznam elementov XML, lastnosti in dovoljene entitete v DTD",
        "Description[sv]": "Listar XML-element, attribut, attributvärden och objekt som tillåts av DTD",
        "Description[tr]": "XML ögelerini, özniteliklerini, öznitelik değerlerini ve DTD tarafından izin verilen varlıkları listeler",
        "Description[uk]": "Список елементів XML, атрибути, значення атрибутів і об’єктів дозволених DTD",
        "Description[vi]": "Liệt kê các phần tử, thuộc tính, giá trị thuộc tính và các thực thể XML được DTD cho phép",
        "Description[x-test]": "xxLists XML elements, attributes, attribute values and entities allowed by DTDxx",
        "Description[zh_CN]": "显示 DTD 允许的 XML 元素、属性、属性值和实体列表",
        "Name": "XML Completion",
        "Name[az]": "XML tamamlama",
        "Name[bg]": "Завършване на думи за XML",
        "Name[ca@valencia]": "Compleció XML",
        "Name[ca]": "Compleció XML",
        "Name[cs]": "Doplňování XML",
        "Name[de]": "XML-Vervollständigung",
        "Name[el]": "Ολοκλήρωση XML",
        "Name[en_GB]": "XML Completion",
        "Name[es]": "Terminación de XML",
        "Name[eu]": "XML osatzea",
        "Name[fi]": "XML-täydennys",
        "Name[fr]": "Complètement du XML",
        "Name[hu]": "XML-kiegészítés",
        "Name[ia]": "Completion XML",
        "Name[it]": "Completamento XML",
        "Name[ko]": "XML 자동 완성",
        "Name[nl]": "XML-aanvulling",
        "Name[pl]": "Uzupełnianie XML",
        "Name[pt]": "Completação de XML",
        "Name[pt_BR]": "Completamento de XML",
        "Name[ru]": "Автодополнение для XML",
        "Name[sk]": "Dokončovanie XML",
        "Name[sl]": "Kompletiranje XML",
        "Name[sv]": "XML-komplettering",
        "Name[tr]": "XML Tamamlama",
        "Name[uk]": "Завершення XML",
        "Name[vi]": "Hoàn tất XML",
        "Name[x-test]": "xxXML Completionxx",
        "Name[zh_CN]": "XML 代码补全",
        "ServiceTypes": [
            "KTextEditor/Plugin"
        ]
    }
}
